########################################################################
#####          &            #####################s                    s#
#####                       #####################                      #
#####          c            #####################                      #
#####                       #####################           c          #
#####       c               #####################           c          #
#####              c        #####################                      #
#####   c                   #####################                      #
#####                       #####################                      #
#####             c         #####################                      #
#####          c            ########################################## #
#####                       ########################################## #
#####               c       ########################################## #
#####                       ########################################## #
################ ##################################################### #
################ ##################################################### #
################ ##################################################### #
################ #################################                     #
################=#################################                     #
################=#################################                     #
################ #################################                     #
################ #################################                     #
################ #################################                     #
################ #################################                     #
###############   ################################                     #
##############  p  ###############################                     #
############   ppp   #################################################*#
#######         @         ########################                     #
#                               ##################           c         #
#                               ##################                     #
#                               ##################                     #
#                                       ppp                            #
#                               ##################                     #
#                               ##################                     #
#                               ##################                     #
########################################################################
